{"elements": {
        "Fragmentos":[
            {"tag":"<span style='color:white'>lightmenu.html</span>","url":"../theme/_lightmenu.html","height":1024, "thumbnail":"../theme/_images/home/header-big-logo.png"},
            {"tag":"<span style='color:white'>lightmenu_3bloques.html</span>","url":"../theme/_lightmenu_3bloques.html","height":1024, "thumbnail":"../theme/_images/home/header-big-logo.png"},
            {"tag":"<span style='color:white'>hero-video.html</span>","url":"../theme/_hero-video.html","height":1024, "thumbnail":"../theme/_images/home/header-big-logo.png"},
            {"tag":"<span style='color:white'>menu.html</span>","url":"../theme/_menu.html","height":1024, "thumbnail":"../theme/_images/home/header-big-logo.png"},
            {"tag":"<span style='color:white'>architecture.html</span>","url":"../theme/_architecture.html","height":1024, "thumbnail":"../theme/_images/home/header-big-logo.png"},
            {"tag":"<span style='color:white'>simplecarousel.html</span>","url":"../theme/_simplecarousel.html","height":1024, "thumbnail":"../theme/_images/home/header-big-logo.png"},
            {"tag":"<span style='color:white'>contactcreative.html</span>","url":"../theme/_contactcreative.html","height":1024, "thumbnail":"../theme/_images/home/header-big-logo.png"},
            {"tag":"<span style='color:white'>newsletter_section.html</span>","url":"../theme/_newsletter_section.html","height":1024, "thumbnail":"../theme/_images/home/header-big-logo.png"},
            {"tag":"<span style='color:white'>footer.html</span>","url":"../theme/_footer.html","height":1024, "thumbnail":"../theme/_images/home/header-big-logo.png"}
            
        ],
        "Paginas":[                                    
        ],
        "Footer":[                  
        ]
    }
}